{
  "result": [
    {
      "id": "fc12ab34cd5611334422ab3322997656",
      "type": "SRV",
      "name": "_srv._tcp.unit.tests",
      "data": {
        "service": "_srv",
        "proto": "_tcp",
        "name": "unit.tests",
        "priority": 12,
        "weight": 20,
        "port": 30,
        "target": "foo-2.unit.tests"
      },
      "proxiable": true,
      "proxied": false,
      "ttl": 600,
      "locked": false,
      "zone_id": "ff12ab34cd5611334422ab3322997650",
      "zone_name": "unit.tests",
      "modified_on": "2017-03-11T18:01:43.940682Z",
      "created_on": "2017-03-11T18:01:43.940682Z",
      "meta": {
        "auto_added": false
      }
    },
    {
      "id": "fc12ab34cd5611334422ab3322997656",
      "type": "SRV",
      "name": "_srv._tcp.unit.tests",
      "data": {
        "service": "_srv",
        "proto": "_tcp",
        "name": "unit.tests",
        "priority": 10,
        "weight": 20,
        "port": 30,
        "target": "foo-1.unit.tests"
      },
      "proxiable": true,
      "proxied": false,
      "ttl": 600,
      "locked": false,
      "zone_id": "ff12ab34cd5611334422ab3322997650",
      "zone_name": "unit.tests",
      "modified_on": "2017-03-11T18:01:43.940682Z",
      "created_on": "2017-03-11T18:01:43.940682Z",
      "meta": {
        "auto_added": false
      }
    },
    {
      "id": "372e67954025e0ba6aaa6d586b9e0b59",
      "type": "LOC",
      "name": "loc.unit.tests",
      "content": "IN LOC 31 58 52.1 S 115 49 11.7 E 20m 10m 10m 2m",
      "proxiable": true,
      "proxied": false,
      "ttl": 300,
      "locked": false,
      "zone_id": "ff12ab34cd5611334422ab3322997650",
      "zone_name": "unit.tests",
      "created_on": "2020-01-28T05:20:00.12345Z",
      "modified_on": "2020-01-28T05:20:00.12345Z",
      "data": {
        "lat_degrees": 31,
        "lat_minutes": 58,
        "lat_seconds": 52.1,
        "lat_direction": "S",
        "long_degrees": 115,
        "long_minutes": 49,
        "long_seconds": 11.7,
        "long_direction": "E",
        "altitude": 20,
        "size": 10,
        "precision_horz": 10,
        "precision_vert": 2
      },
      "meta": {
         "auto_added": true,
         "source": "primary"
      }
    },
    {
      "id": "372e67954025e0ba6aaa6d586b9e0b59",
      "type": "LOC",
      "name": "loc.unit.tests",
      "content": "IN LOC 53 14 10 N 2 18 26 W 20m 10m 1000m 2m",
      "proxiable": true,
      "proxied": false,
      "ttl": 300,
      "locked": false,
      "zone_id": "ff12ab34cd5611334422ab3322997650",
      "zone_name": "unit.tests",
      "created_on": "2020-01-28T05:20:00.12345Z",
      "modified_on": "2020-01-28T05:20:00.12345Z",
      "data": {
        "lat_degrees": 53,
        "lat_minutes": 13,
        "lat_seconds": 10,
        "lat_direction": "N",
        "long_degrees": 2,
        "long_minutes": 18,
        "long_seconds": 26,
        "long_direction": "W",
        "altitude": 20,
        "size": 10,
        "precision_horz": 1000,
        "precision_vert": 2
      },
      "meta": {
         "auto_added": true,
         "source": "primary"
      }
    },
    {
      "id": "8b60c8518d09465ffc7741b7a4a431f99",
      "type": "NAPTR",
      "name": "unit.tests",
      "content": "30 100 \"S\" \"SIP+D2T\" \"\" _sip._tls.unit.tests.",
      "proxiable": false,
      "proxied": false,
      "ttl": 1,
      "locked": false,
      "zone_id": "ff12ab34cd5611334422ab3322997650",
      "zone_name": "unit.tests",
      "created_on": "2023-01-08T01:02:34.567985Z",
      "modified_on": "2023-01-08T01:02:34.567985Z",
      "data": {
        "flags": "S",
        "order": 30,
        "preference": 100,
        "regex": "",
        "replacement": "_sip._tls.unit.tests.",
        "service": "SIP+D2T"
      },
      "meta": {
        "auto_added": false,
        "managed_by_apps": false,
        "managed_by_argo_tunnel": false,
        "source": "primary"
      }
    },
    {
      "id": "ggozrtnzb11nrr9qs4ko6y3j19qkehux9",
      "type": "SSHFP",
      "name": "unit.tests",
      "content": "1 2 859be6ed04643db411f067b6c1da1d75fe08b672",
      "proxiable": false,
      "proxied": false,
      "ttl": 300,
      "locked": false,
      "zone_id": "ff12ab34cd5611334422ab3322997650",
      "zone_name": "unit.tests",
      "created_on": "2023-03-02T01:02:44.567985Z",
      "modified_on": "2023-03-02T01:02:44.567985Z",
      "data": {
        "algorithm": 1,
        "type": 2,
        "fingerprint": "859be6ed04643db411f067b6c1da1d75fe08b672"
      },
      "meta": {
        "auto_added": false,
        "managed_by_apps": false,
        "managed_by_argo_tunnel": false,
        "source": "primary"
      }
    },
    {
      "id": "fc12ab34cd5612345422ab3322997664",
      "type": "TXT",
      "name": "txt.gíthub.com",
      "content": "IDNA test data",
      "proxiable": false,
      "proxied": false,
      "ttl": 600,
      "locked": false,
      "zone_id": "234234243423aaabb334342bbb343433",
      "zone_name": "gíthub.com",
      "modified_on": "2017-03-11T18:01:42.837282Z",
      "created_on": "2017-03-11T18:01:42.837282Z",
      "meta": {
        "auto_added": false
      }
    }
  ],
  "result_info": {
    "page": 3,
    "per_page": 10,
    "total_pages": 3,
    "count": 7,
    "total_count": 27
  },
  "success": true,
  "errors": [],
  "messages": []
}
